# Alias OBJ Model File
# Exported from SketchUp, (c) 2000-2012 Trimble Navigation Limited
# File units = inches

mtllib skp3.mtl

g Mesh1 Model

usemtl Color_E03
v 2.95533 0 2.10355
vt -2.95533 -2.10355
vn 0 -1 -0
v -2.54467 0 2.10355
vt 2.54467 -2.10355
v -2.54467 0 -2.64645
vt 2.54467 2.64645
v 2.95533 0 -2.64645
vt -2.95533 2.64645
f 1/1/1 2/2/1 3/3/1 4/4/1 

usemtl Color_A03
vt -2.54467 0
vn 0 0 1
vt 2.95533 0
v 2.95533 4 2.10355
vt 2.95533 4
v -2.54467 4 2.10355
vt -2.54467 4
f 2/5/2 1/6/2 5/7/2 6/8/2 

usemtl Color_I07
vt -2.10355 0
vn 1 0 -0
vt 2.64645 0
v 2.95533 4 -2.64645
vt 2.64645 4
vt -2.10355 4
f 1/9/3 4/10/3 7/11/3 5/12/3 

usemtl Color_J03
vt -2.95533 0
vn 0 0 -1
vt 2.54467 0
v -2.54467 4 -2.64645
vt 2.54467 4
vt -2.95533 4
f 4/13/4 3/14/4 8/15/4 7/16/4 

usemtl Color_M05
vt -2.64645 0
vn -1 0 -0
vt 2.10355 0
vt 2.10355 4
vt -2.64645 4
f 3/17/5 2/18/5 6/19/5 8/20/5 

usemtl Color_A03
vt -2.54467 -2.10355
vn 0 1 -0
vt 2.95533 -2.10355
vt 2.95533 2.64645
vt -2.54467 2.64645
f 6/21/6 5/22/6 7/23/6 8/24/6 

